RD_proj_KES
…
Summary of top gene families

obj3_summary <- obj3 %>%
  count(gene_family, trait_group, sort = TRUE) %>%
  group_by(gene_family) %>%
  mutate(total_family_n = sum(n)) %>%
  ungroup() %>%
  filter(total_family_n >= 3)   # adjust threshold
obj3_summary

# A tibble: 23 × 4
   gene_family trait_group            n total_family_n
   <chr>       <chr>              <int>          <int>
 1 CRY         Disease resistance     9             10
 2 DREB        Drought tolerance      5              6
 3 MYB         Disease resistance     5              6
 4 PR          Disease resistance     5              6
 5 WRKY        Disease resistance     5              9
 6 WRKY        Drought tolerance      4              9
 7 BAX         Disease resistance     3              3
 8 CP          Disease resistance     3              3
 9 LR          Disease resistance     3              3
10 MIR         Disease resistance     3              3
# ℹ 13 more rows
…
